Final Project
…
Part 1: Data Curation, Parsing and Management

1.1: Accessing and Viewing the data

First, we need to download the dataset from https://www.kaggle.com/carolzhangdc/imdb-5000-movie-dataset. The file downloaded will be in the form of a CSV(Comma-seperated value) file named movie_metadata.csv. After downloading it, we can easily read it in to R using the read_csv function.

# Reading the CSV file and storing it as a dataframe
movie_tab <- read_csv("~/movie_metadata.csv")
# View the data
movie_tab

## # A tibble: 5,043 x 28
##    color director_name num_critic_for_ duration director_facebo
##    <chr> <chr>                    <dbl>    <dbl>            <dbl>
##  1 Color James Cameron              723      178                0
##  2 Color Gore Verbins              302      169              563
##  3 Color Sam Mendes                 602      148                0
##  4 Color Christopher               813      164            22000
##  5 <NA>  Doug Walker                 NA       NA              131
##  6 Color Andrew Stant              462      132              475
##  7 Color Sam Raimi                  392      156                0
##  8 Color Nathan Greno               324      100               15
##  9 Color Joss Whedon                635      141                0
## 10 Color David Yates                375      153              282
## # ... with 5,033 more rows, and 23 more variables:
## #   actor_3_facebook_likes <dbl>, actor_2_name <chr>,
## #   actor_1_facebook_likes <dbl>, gross <dbl>, genres <chr>,
## #   actor_1_name <chr>, movie_title <chr>, num_voted_users <dbl>,
## #   cast_total_facebook_likes <dbl>, actor_3_name <chr>,
## #   facenumber_in_poster <dbl>, plot_keywords <chr>,
## #   movie_imdb_link <chr>, num_user_for_reviews <dbl>, language <chr>,
## #   country <chr>, content_rating <chr>, budget <dbl>, title_year <dbl>,
## #   actor_2_facebook_likes <dbl>, imdb_score <dbl>, aspect_ratio <dbl>,
…
# removing the duplicate rows
movie_tab <- movie_tab[!duplicated(movie_tab), ]

We get 4998 observations left.

1.3.2 Removing Unnecessary Columns

There are some variables in the dataset that are not going to be used in this analysis. Thus, it is better to remove those variables(columns) so that the data is to the point and easier to manipulate. In particular, we will be dropping the following columns: color, Facebook likes for the movie, the movies director and individual actors, the number of users who voted, aspect ratio, plot keywords and number of people in the movies poster.

# removing unnecessary columns
movie_tab <- movie_tab %>%
 select(-color, -director_facebook_likes, - actor_3_facebook_likes, -actor_1_facebook_likes, -num_voted_users, -facenumber_in_poster, -plot_keywords, -movie_imdb_link, -actor_2_facebook_likes, -aspect_ratio, -movie_facebook_likes)
movie_tab

## # A tibble: 4,998 x 17
##    director_name num_critic_for_ duration actor_2_name   gross genres
##    <chr>                    <dbl>    <dbl> <chr>          <dbl> <chr> 
##  1 James Cameron              723      178 Joel David   7.61e8 Actio
##  2 Gore Verbins              302      169 Orlando Blo  3.09e8 Actio
##  3 Sam Mendes                 602      148 Rory Kinnear  2.00e8 Actio
##  4 Christopher               813      164 Christian B  4.48e8 Actio
##  5 Doug Walker                 NA       NA Rob Walker   NA      Docum
##  6 Andrew Stant              462      132 Samantha Mo  7.31e7 Actio
##  7 Sam Raimi                  392      156 James Franco  3.37e8 Actio
##  8 Nathan Greno               324      100 Donna Murphy  2.01e8 Adven
##  9 Joss Whedon                635      141 Robert Down  4.59e8 Actio
## 10 David Yates                375      153 Daniel Radc  3.02e8 Adven
## # ... with 4,988 more rows, and 11 more variables: actor_1_name <chr>,
## #   movie_title <chr>, cast_total_facebook_likes <dbl>,
## #   actor_3_name <chr>, num_user_for_reviews <dbl>, language <chr>,
## #   country <chr>, content_rating <chr>, budget <dbl>, title_year <dbl>,
## #   imdb_score <dbl>
…
We are only going to keep track of Action, Adventure, Fantasy, Sci-fi, Family, Drama and Comedy. We will keep these on as logical attributes, so if a movie has multiple genres it will be true for those respective attributes.

movie_tab$Action <- movie_tab$genres %like% "Action"
movie_tab$Adventure <- movie_tab$genres %like% "Adventure"
movie_tab$Fantasy <- movie_tab$genres %like% "Fantasy"
movie_tab$SciFi <- movie_tab$genres %like% "Sci-Fi"
movie_tab$Family <- movie_tab$genres %like% "Family"
movie_tab$Drama <- movie_tab$genres %like% "Drama"
movie_tab$Comedy <- movie_tab$genres %like% "Comedy"
# movie_tab <- movie_tab %>% select(-genres)
movie_tab

## # A tibble: 4,998 x 24
##    director_name num_critic_for_ duration actor_2_name   gross genres
##    <chr>                    <dbl>    <dbl> <chr>          <dbl> <chr> 
##  1 James Cameron              723      178 Joel David   7.61e8 Actio
##  2 Gore Verbins              302      169 Orlando Blo  3.09e8 Actio
##  3 Sam Mendes                 602      148 Rory Kinnear  2.00e8 Actio
##  4 Christopher               813      164 Christian B  4.48e8 Actio
##  5 Doug Walker                 NA       NA Rob Walker   NA      Docum
##  6 Andrew Stant              462      132 Samantha Mo  7.31e7 Actio
##  7 Sam Raimi                  392      156 James Franco  3.37e8 Actio
##  8 Nathan Greno               324      100 Donna Murphy  2.01e8 Adven
##  9 Joss Whedon                635      141 Robert Down  4.59e8 Actio
## 10 David Yates                375      153 Daniel Radc  3.02e8 Adven
## # ... with 4,988 more rows, and 18 more variables: actor_1_name <chr>,
## #   movie_title <chr>, cast_total_facebook_likes <dbl>,
## #   actor_3_name <chr>, num_user_for_reviews <dbl>, language <chr>,
## #   country <chr>, content_rating <chr>, budget <dbl>, title_year <dbl>,
## #   imdb_score <dbl>, Action <lgl>, Adventure <lgl>, Fantasy <lgl>,
## #   SciFi <lgl>, Family <lgl>, Drama <lgl>, Comedy <lgl>
…
